…
``` r
#using broom::augment, can extract the fitted values for predicted flipper length based on each observed body mass value
#and the standard error of the predicted values
penguin_results <- penguin_model %>%
  mutate(species, yhat = map(model, ~augment(.x, se_fit = TRUE)), .keep = "none") %>%  #adds information about each observation using the model
  unnest(yhat) %>% #each data point has its own row, unnested
  select(species, flipper_length_mm, body_mass_g, .fitted, .resid, .se.fit) %>% #select only useful columns
  rename(predicted_flipper_length = .fitted, residual = .resid, se_fit = .se.fit) #rename columns for readability

#print cleaned unnested tibble 
penguin_results
```

    ## # A tibble: 342 × 6
    ##    species flipper_length_mm body_mass_g predicted_flipper_len…¹ residual se_fit
    ##    <fct>               <int>       <int>                   <dbl>    <dbl>  <dbl>
    ##  1 Adelie                181        3750                    190.   -9.28   0.475
    ##  2 Adelie                186        3800                    191.   -4.62   0.483
    ##  3 Adelie                195        3250                    187.    8.06   0.663
    ##  4 Adelie                193        3450                    188.    4.72   0.538
    ##  5 Adelie                190        3650                    190.    0.385  0.475
    ##  6 Adelie                181        3625                    189.   -8.45   0.478
    ##  7 Adelie                195        4675                    196.   -1.46   1.11 
    ##  8 Adelie                193        3475                    188.    4.55   0.526
    ##  9 Adelie                190        4250                    194.   -3.62   0.738
    ## 10 Adelie                186        3300                    187.   -1.28   0.627
    ## # ℹ 332 more rows
    ## # ℹ abbreviated name: ¹​predicted_flipper_length
We can next calculate 95% confidence intervals for the predicted values,
using the standard errors of the fit. This gives us an idea whether the
predictions have low or high uncertainty based on the model.

``` r
final_penguin <- penguin_results %>%
  mutate(low_ci = predicted_flipper_length -1.96*se_fit) %>% #lower bound of 95% confidence interval
  mutate(high_ci = predicted_flipper_length + 1.96*se_fit) %>% #higher bound of 95% confidence interval
  select(species, flipper_length_mm, body_mass_g, predicted_flipper_length, low_ci, high_ci)

#print the final tibble
final_penguin
```

    ## # A tibble: 342 × 6
    ##    species flipper_length_mm body_mass_g predicted_flipper_length low_ci high_ci
    ##    <fct>               <int>       <int>                    <dbl>  <dbl>   <dbl>
    ##  1 Adelie                181        3750                     190.   189.    191.
    ##  2 Adelie                186        3800                     191.   190.    192.
    ##  3 Adelie                195        3250                     187.   186.    188.
    ##  4 Adelie                193        3450                     188.   187.    189.
    ##  5 Adelie                190        3650                     190.   189.    191.
    ##  6 Adelie                181        3625                     189.   189.    190.
    ##  7 Adelie                195        4675                     196.   194.    199.
    ##  8 Adelie                193        3475                     188.   187.    189.
    ##  9 Adelie                190        4250                     194.   192.    195.
    ## 10 Adelie                186        3300                     187.   186.    189.
    ## # ℹ 332 more rows
…
